[gd_scene load_steps=3 format=2]

[ext_resource path="res://Scripts/ActivationDaily.gd" type="Script" id=1]
[ext_resource path="res://Assets/Daily Bonus/check mark.png" type="Texture" id=2]

[node name="ActivationDaily" type="Control" groups=[
"Day",
]]

anchor_left = 0.0
anchor_top = 0.0
anchor_right = 0.0
anchor_bottom = 0.0
margin_right = 40.0
margin_bottom = 40.0
rect_pivot_offset = Vector2( 0, 0 )
rect_clip_content = false
mouse_filter = 0
mouse_default_cursor_shape = 0
size_flags_horizontal = 1
size_flags_vertical = 1
script = ExtResource( 1 )
Day = null
Bonus = null

[node name="Daily" type="TextureRect" parent="." index="0"]

visible = false
anchor_left = 0.0
anchor_top = 0.0
anchor_right = 1.0
anchor_bottom = 1.0
margin_right = 100.0
margin_bottom = 100.0
rect_pivot_offset = Vector2( 0, 0 )
rect_clip_content = false
mouse_filter = 1
mouse_default_cursor_shape = 0
size_flags_horizontal = 1
size_flags_vertical = 1
texture = ExtResource( 2 )
stretch_mode = 0
_sections_unfolded = [ "Rect", "Visibility" ]


